/home/wendell/Documentos/projetos/tcc-receita-segura/receitas-back/src/main/java/br/com/receitaseguraapi/services/EspecialidadeService.java
/home/wendell/Documentos/projetos/tcc-receita-segura/receitas-back/src/main/java/br/com/receitaseguraapi/model/general/Receita.java
/home/wendell/Documentos/projetos/tcc-receita-segura/receitas-back/src/main/java/br/com/receitaseguraapi/repository/filtros/ProfissionalFilter.java
/home/wendell/Documentos/projetos/tcc-receita-segura/receitas-back/src/main/java/br/com/receitaseguraapi/resource/general/InstituicaoController.java
/home/wendell/Documentos/projetos/tcc-receita-segura/receitas-back/src/main/java/br/com/receitaseguraapi/services/validation/UsuarioInsert.java
/home/wendell/Documentos/projetos/tcc-receita-segura/receitas-back/src/main/java/br/com/receitaseguraapi/model/general/Medico.java
/home/wendell/Documentos/projetos/tcc-receita-segura/receitas-back/src/main/java/br/com/receitaseguraapi/config/property/ReceitaSeguraApiProperty.java
/home/wendell/Documentos/projetos/tcc-receita-segura/receitas-back/src/main/java/br/com/receitaseguraapi/config/TestConfig.java
/home/wendell/Documentos/projetos/tcc-receita-segura/receitas-back/src/main/java/br/com/receitaseguraapi/services/exceptions/DataIntegrityException.java
/home/wendell/Documentos/projetos/tcc-receita-segura/receitas-back/src/main/java/br/com/receitaseguraapi/services/validation/UsuarioUpdate.java
/home/wendell/Documentos/projetos/tcc-receita-segura/receitas-back/src/main/java/br/com/receitaseguraapi/model/dto/general/EnderecoDTO.java
/home/wendell/Documentos/projetos/tcc-receita-segura/receitas-back/src/main/java/br/com/receitaseguraapi/resource/general/exceptions/FieldMessage.java
/home/wendell/Documentos/projetos/tcc-receita-segura/receitas-back/src/main/java/br/com/receitaseguraapi/model/general/Pessoa.java
/home/wendell/Documentos/projetos/tcc-receita-segura/receitas-back/src/main/java/br/com/receitaseguraapi/ReceitaSeguraApiApplication.java
/home/wendell/Documentos/projetos/tcc-receita-segura/receitas-back/src/main/java/br/com/receitaseguraapi/utils/ConstantesTags.java
/home/wendell/Documentos/projetos/tcc-receita-segura/receitas-back/src/main/java/br/com/receitaseguraapi/resource/utils/GeradorRelatorio.java
/home/wendell/Documentos/projetos/tcc-receita-segura/receitas-back/src/main/java/br/com/receitaseguraapi/model/enums/NivelDeAcesso.java
/home/wendell/Documentos/projetos/tcc-receita-segura/receitas-back/src/main/java/br/com/receitaseguraapi/utils/GeraAutorizacao.java
/home/wendell/Documentos/projetos/tcc-receita-segura/receitas-back/src/main/java/br/com/receitaseguraapi/model/enums/TipoUsuario.java
/home/wendell/Documentos/projetos/tcc-receita-segura/receitas-back/src/main/java/br/com/receitaseguraapi/services/exceptions/AuthorizationException.java
/home/wendell/Documentos/projetos/tcc-receita-segura/receitas-back/src/main/java/br/com/receitaseguraapi/resource/general/exceptions/ResourceExceptionHandler.java
/home/wendell/Documentos/projetos/tcc-receita-segura/receitas-back/src/main/java/br/com/receitaseguraapi/utils/ConstantesPaths.java
/home/wendell/Documentos/projetos/tcc-receita-segura/receitas-back/src/main/java/br/com/receitaseguraapi/services/validation/UsuarioUpdateValidator.java
/home/wendell/Documentos/projetos/tcc-receita-segura/receitas-back/src/main/java/br/com/receitaseguraapi/model/dto/general/EspecialidadeProfissionalDTO.java
/home/wendell/Documentos/projetos/tcc-receita-segura/receitas-back/src/main/java/br/com/receitaseguraapi/utils/Permissoes.java
/home/wendell/Documentos/projetos/tcc-receita-segura/receitas-back/src/main/java/br/com/receitaseguraapi/model/usuario/Usuario.java
/home/wendell/Documentos/projetos/tcc-receita-segura/receitas-back/src/main/java/br/com/receitaseguraapi/model/general/Sequencial.java
/home/wendell/Documentos/projetos/tcc-receita-segura/receitas-back/src/main/java/br/com/receitaseguraapi/model/general/Paciente.java
/home/wendell/Documentos/projetos/tcc-receita-segura/receitas-back/src/main/java/br/com/receitaseguraapi/services/exceptions/ObjectNotFoundException.java
/home/wendell/Documentos/projetos/tcc-receita-segura/receitas-back/src/main/java/br/com/receitaseguraapi/utils/Conversor.java
/home/wendell/Documentos/projetos/tcc-receita-segura/receitas-back/src/main/java/br/com/receitaseguraapi/model/enums/Genero.java
/home/wendell/Documentos/projetos/tcc-receita-segura/receitas-back/src/main/java/br/com/receitaseguraapi/model/general/Atestado.java
/home/wendell/Documentos/projetos/tcc-receita-segura/receitas-back/src/main/java/br/com/receitaseguraapi/model/general/Endereco.java
/home/wendell/Documentos/projetos/tcc-receita-segura/receitas-back/src/main/java/br/com/receitaseguraapi/model/enums/TipoPessoa.java
/home/wendell/Documentos/projetos/tcc-receita-segura/receitas-back/src/main/java/br/com/receitaseguraapi/model/general/Especialidade.java
/home/wendell/Documentos/projetos/tcc-receita-segura/receitas-back/src/main/java/br/com/receitaseguraapi/model/enums/PermissaoDeAcesso.java
/home/wendell/Documentos/projetos/tcc-receita-segura/receitas-back/src/main/java/br/com/receitaseguraapi/services/EnderecoService.java
/home/wendell/Documentos/projetos/tcc-receita-segura/receitas-back/src/main/java/br/com/receitaseguraapi/cors/CorsFilter.java
/home/wendell/Documentos/projetos/tcc-receita-segura/receitas-back/src/main/java/br/com/receitaseguraapi/repository/InstituicaoRepository.java
/home/wendell/Documentos/projetos/tcc-receita-segura/receitas-back/src/main/java/br/com/receitaseguraapi/resource/general/TokenController.java
/home/wendell/Documentos/projetos/tcc-receita-segura/receitas-back/src/main/java/br/com/receitaseguraapi/model/general/Documento.java
/home/wendell/Documentos/projetos/tcc-receita-segura/receitas-back/src/main/java/br/com/receitaseguraapi/token/RefreshTokenPostProcessor.java
/home/wendell/Documentos/projetos/tcc-receita-segura/receitas-back/src/main/java/br/com/receitaseguraapi/services/ImageService.java
/home/wendell/Documentos/projetos/tcc-receita-segura/receitas-back/src/main/java/br/com/receitaseguraapi/resource/general/CidResource.java
/home/wendell/Documentos/projetos/tcc-receita-segura/receitas-back/src/main/java/br/com/receitaseguraapi/config/SwaggerConfig.java
/home/wendell/Documentos/projetos/tcc-receita-segura/receitas-back/src/main/java/br/com/receitaseguraapi/security/UserSS.java
/home/wendell/Documentos/projetos/tcc-receita-segura/receitas-back/src/main/java/br/com/receitaseguraapi/repository/UsuarioRepository.java
/home/wendell/Documentos/projetos/tcc-receita-segura/receitas-back/src/main/java/br/com/receitaseguraapi/model/dto/general/CredenciaisDTO.java
/home/wendell/Documentos/projetos/tcc-receita-segura/receitas-back/src/main/java/br/com/receitaseguraapi/services/DBService.java
/home/wendell/Documentos/projetos/tcc-receita-segura/receitas-back/src/main/java/br/com/receitaseguraapi/repository/projection/ResumoProfissional.java
/home/wendell/Documentos/projetos/tcc-receita-segura/receitas-back/src/main/java/br/com/receitaseguraapi/model/general/Cid.java
/home/wendell/Documentos/projetos/tcc-receita-segura/receitas-back/src/main/java/br/com/receitaseguraapi/services/InstituicaoService.java
/home/wendell/Documentos/projetos/tcc-receita-segura/receitas-back/src/main/java/br/com/receitaseguraapi/services/CidService.java
/home/wendell/Documentos/projetos/tcc-receita-segura/receitas-back/src/main/java/br/com/receitaseguraapi/services/UsuarioService.java
/home/wendell/Documentos/projetos/tcc-receita-segura/receitas-back/src/main/java/br/com/receitaseguraapi/config/token/CustomTokenEnhancer.java
/home/wendell/Documentos/projetos/tcc-receita-segura/receitas-back/src/main/java/br/com/receitaseguraapi/resource/general/exceptions/StandardError.java
/home/wendell/Documentos/projetos/tcc-receita-segura/receitas-back/src/main/java/br/com/receitaseguraapi/services/exceptions/FileException.java
/home/wendell/Documentos/projetos/tcc-receita-segura/receitas-back/src/main/java/br/com/receitaseguraapi/repository/EspecialidadeRepository.java
/home/wendell/Documentos/projetos/tcc-receita-segura/receitas-back/src/main/java/br/com/receitaseguraapi/repository/queries/ProfissionalRepositoryImpl.java
/home/wendell/Documentos/projetos/tcc-receita-segura/receitas-back/src/main/java/br/com/receitaseguraapi/config/HomeConfig.java
/home/wendell/Documentos/projetos/tcc-receita-segura/receitas-back/src/main/java/br/com/receitaseguraapi/repository/queries/ProfissionalRepositoryQuery.java
/home/wendell/Documentos/projetos/tcc-receita-segura/receitas-back/src/main/java/br/com/receitaseguraapi/resource/general/EspecialidadeController.java
/home/wendell/Documentos/projetos/tcc-receita-segura/receitas-back/src/main/java/br/com/receitaseguraapi/model/dto/usuario/UsuarioNewDTO.java
/home/wendell/Documentos/projetos/tcc-receita-segura/receitas-back/src/main/java/br/com/receitaseguraapi/services/UserService.java
/home/wendell/Documentos/projetos/tcc-receita-segura/receitas-back/src/main/java/br/com/receitaseguraapi/model/general/Instituicao.java
/home/wendell/Documentos/projetos/tcc-receita-segura/receitas-back/src/main/java/br/com/receitaseguraapi/security/AppUserDetailsService.java
/home/wendell/Documentos/projetos/tcc-receita-segura/receitas-back/src/main/java/br/com/receitaseguraapi/model/enums/TipoInstituicao.java
/home/wendell/Documentos/projetos/tcc-receita-segura/receitas-back/src/main/java/br/com/receitaseguraapi/services/validation/UsuarioInsertValidator.java
/home/wendell/Documentos/projetos/tcc-receita-segura/receitas-back/src/main/java/br/com/receitaseguraapi/utils/CalculaIdade.java
/home/wendell/Documentos/projetos/tcc-receita-segura/receitas-back/src/main/java/br/com/receitaseguraapi/resource/utils/URL.java
/home/wendell/Documentos/projetos/tcc-receita-segura/receitas-back/src/main/java/br/com/receitaseguraapi/token/RefreshTokenCookiePreProcessorFilter.java
/home/wendell/Documentos/projetos/tcc-receita-segura/receitas-back/src/main/java/br/com/receitaseguraapi/utils/UsuarioLogado.java
/home/wendell/Documentos/projetos/tcc-receita-segura/receitas-back/src/main/java/br/com/receitaseguraapi/config/OAuthSecurityConfig.java
/home/wendell/Documentos/projetos/tcc-receita-segura/receitas-back/src/main/java/br/com/receitaseguraapi/repository/CidRepository.java
/home/wendell/Documentos/projetos/tcc-receita-segura/receitas-back/src/main/java/br/com/receitaseguraapi/model/general/Medicamento.java
/home/wendell/Documentos/projetos/tcc-receita-segura/receitas-back/src/main/java/br/com/receitaseguraapi/model/dto/usuario/UsuarioDTO.java
/home/wendell/Documentos/projetos/tcc-receita-segura/receitas-back/src/main/java/br/com/receitaseguraapi/repository/EnderecoRepository.java
/home/wendell/Documentos/projetos/tcc-receita-segura/receitas-back/src/main/java/br/com/receitaseguraapi/resource/usuario/UsuarioController.java
/home/wendell/Documentos/projetos/tcc-receita-segura/receitas-back/src/main/java/br/com/receitaseguraapi/config/DevConfig.java
/home/wendell/Documentos/projetos/tcc-receita-segura/receitas-back/src/main/java/br/com/receitaseguraapi/config/ResourceServerConfig.java
/home/wendell/Documentos/projetos/tcc-receita-segura/receitas-back/src/main/java/br/com/receitaseguraapi/resource/general/exceptions/ValidationError.java
/home/wendell/Documentos/projetos/tcc-receita-segura/receitas-back/src/main/java/br/com/receitaseguraapi/resource/general/EnderecosController.java
/home/wendell/Documentos/projetos/tcc-receita-segura/receitas-back/src/main/java/br/com/receitaseguraapi/config/AuthorizationServerConfig.java
/home/wendell/Documentos/projetos/tcc-receita-segura/receitas-back/src/main/java/br/com/receitaseguraapi/model/enums/StatusUsuario.java
